…
## Extracting factors

``` r
mt_extract_factors_tbl(meta_df)
#> # A tibble: 147 x 3
#>    attributeName code        definition 
#>    <fct>         <fct>       <fct>      
#>  1 country       Afghanistan Afghanistan
#>  2 country       Albania     Albania    
#>  3 country       Algeria     Algeria    
#>  4 country       Angola      Angola     
#>  5 country       Argentina   Argentina  
#>  6 country       Australia   Australia  
#>  7 country       Austria     Austria    
#>  8 country       Bahrain     Bahrain    
#>  9 country       Bangladesh  Bangladesh 
#> 10 country       Belgium     Belgium    
#> # … with 137 more rows
```
…
